{
  "template": "cmake",
  "kill": "telegram-plus",
  "dependencies": [
    "gperf",
    "libssl-dev",
    "ccache"
  ],
  "specificDependencies": true,
  "dir": "build/telegram-plus",
  "make_jobs": "1"
}
